module gitlab.com/edwnjos/drksrv/auth

go 1.13

require (
	gitlab.com/edwnjos/drksrv/profile v0.0.0-20191110145308-f52c9aab050e // indirect
	golang.org/x/crypto v0.0.0-20191108234033-bd318be0434a // indirect
)
